module main

go 1.18

require golang.zx2c4.com/wireguard v0.0.0-20220829161405-d1d08426b27b

require (
	github.com/google/btree v1.0.1 // indirect
	golang.org/x/crypto v0.0.0-20220315160706-3147a52a75dd // indirect
	golang.org/x/net v0.0.0-20220225172249-27dd8689420f // indirect
	golang.org/x/sys v0.0.0-20220315194320-039c03cc5b86 // indirect
	golang.org/x/time v0.0.0-20191024005414-555d28b269f0 // indirect
	golang.zx2c4.com/wintun v0.0.0-20211104114900-415007cec224 // indirect
	gvisor.dev/gvisor v0.0.0-20220817001344-846276b3dbc5 // indirect
)
